…
Please note that the presented here is shown as downloaded from the AEC's website.

## Primary Vote

It is possible to get all primary vote results for all electorates in all electon from 2044, by running *get_house_primary_vote()*. More usefully, the funcion allows to filter by a number of electorates for a numbers of years, as shown in the below example:


```r
get_house_primary_vote(division = c("Cowan","Curtin"),year=c(2019,2022))
#> # A tibble: 1,735 × 17
#>     Year StateAb Divis…¹ Divis…² Polli…³ Polli…⁴ Candi…⁵ Surname GivenNm Ballo…⁶ Elected Histo…⁷ PartyAb PartyNm Ordin…⁸ Swing Sitti…⁹
#>    <dbl> <chr>     <int> <chr>     <int> <chr>     <int> <chr>   <chr>     <int> <lgl>   <lgl>   <chr>   <chr>     <int> <dbl> <lgl>  
#>  1  2022 WA          237 Cowan     11591 Alexan…   37205 ALY     Anne          1 TRUE    TRUE    ALP     Austra…     688  9.18 FALSE  
#>  2  2022 WA          237 Cowan     11591 Alexan…   36591 TRIPP   Isabel…       2 FALSE   FALSE   GRN     The Gr…     124 -1.47 FALSE  
#>  3  2022 WA          237 Cowan     11591 Alexan…   36484 IRADUK… Sylvia        3 FALSE   FALSE   AUC     Austra…      28  0.05 FALSE  
#>  4  2022 WA          237 Cowan     11591 Alexan…   37243 CALAUT… Michael       4 FALSE   FALSE   CYA     Austra…      27  1.96 FALSE  
#>  5  2022 WA          237 Cowan     11591 Alexan…   37387 WALSH   Tyler         5 FALSE   FALSE   ON      Paulin…      38 -3.35 FALSE  
#>  6  2022 WA          237 Cowan     11591 Alexan…   37222 van KR… Micah         6 FALSE   FALSE   LDP     Libera…      11  0.8  FALSE  
#>  7  2022 WA          237 Cowan     11591 Alexan…   37841 LAVERA… Roland        7 FALSE   FALSE   WAP     WESTER…      26  1.89 FALSE  
#>  8  2022 WA          237 Cowan     11591 Alexan…   36483 HAND    Claire…       8 FALSE   FALSE   UAPP    United…      34 -0.24 FALSE  
#>  9  2022 WA          237 Cowan     11591 Alexan…   36574 CONNEL… Vince         9 FALSE   TRUE    LP      Liberal     369 -9.96 FALSE  
#> 10  2022 WA          237 Cowan     11591 Alexan…   37219 ANAGNO  Michael      10 FALSE   FALSE   AJP     Animal…      33  2.39 FALSE  
#> # … with 1,725 more rows, and abbreviated variable names ¹​DivisionID, ²​DivisionNm, ³​PollingPlaceID, ⁴​PollingPlace, ⁵​CandidateID,
#> #   ⁶​BallotPosition, ⁷​HistoricElected, ⁸​OrdinaryVotes, ⁹​SittingMemberFl
```
…
The function also can present the division totals, for example:


```r
get_house_primary_vote(division = c("Cowan","Curtin"),
                       year=c(2019,2022), 
                       aggregation = TRUE)
#> # A tibble: 37 × 14
#>     Year StateAb DivisionID DivisionNm CandidateID Surname  GivenNm    BallotPosition Elected Histor…¹ PartyAb PartyNm Sitti…² Ordin…³
#>    <dbl> <chr>        <int> <chr>            <int> <chr>    <chr>               <int> <lgl>   <lgl>    <chr>   <chr>   <lgl>     <int>
#>  1  2019 WA             237 Cowan              999 Informal Informal              999 FALSE   FALSE    Inform… Inform… FALSE      4090
#>  2  2019 WA             237 Cowan            32239 COOPER   Mark                    1 FALSE   FALSE    GRN     The Gr… FALSE      6493
#>  3  2019 WA             237 Cowan            32778 LEBRASSE Andre                   4 FALSE   FALSE    AUC     Austra… FALSE      1514
#>  4  2019 WA             237 Cowan            32875 BEDFORD  Paul James              6 FALSE   FALSE    ASP     Shoote… FALSE      1101
#>  5  2019 WA             237 Cowan            32934 WESTCOTT Peter                   3 FALSE   FALSE    UAPP    United… FALSE      1582
#>  6  2019 WA             237 Cowan            33348 ALY      Anne                    2 TRUE    TRUE     ALP     Austra… FALSE     26330
#>  7  2019 WA             237 Cowan            33389 STEWART  Isaac                   7 FALSE   FALSE    LP      Liberal FALSE     26721
#>  8  2019 WA             237 Cowan            33450 MUNDY    Sheila                  5 FALSE   FALSE    ON      Paulin… FALSE      3641
#>  9  2019 WA             238 Curtin             999 Informal Informal              999 FALSE   FALSE    Inform… Inform… FALSE      2364
#> 10  2019 WA             238 Curtin           32149 PIDGEON  Cameron                 2 FALSE   FALSE    GRN     The Gr… FALSE     10905
#> # … with 27 more rows, and abbreviated variable names ¹​HistoricElected, ²​SittingMemberFl, ³​OrdinaryVotes
```
…
Similarly to the primary vote function, results can be aggregated and filtered by polling place:


```r
get_house_preferences("Wills",2019,
                      aggregation = TRUE)
#> # A tibble: 60 × 13
#>     Year StateAb DivisionId DivisionNm CountNum BallotPosition CandidateId Surname GivenNm           PartyAb PartyNm   Calcu…¹ Calcu…²
#>    <dbl> <chr>        <int> <chr>         <int>          <int>       <int> <chr>   <chr>             <chr>   <chr>     <chr>     <dbl>
#>  1  2019 VIC            234 Wills             0              1       32688 MILES   Christopher James AJP     Animal J… Prefer…    3596
#>  2  2019 VIC            234 Wills             0              1       32688 MILES   Christopher James AJP     Animal J… Transf…       0
#>  3  2019 VIC            234 Wills             0              2       32398 BOLTON  Susanne Alison    VNS     Victoria… Prefer…    4344
#>  4  2019 VIC            234 Wills             0              2       32398 BOLTON  Susanne Alison    VNS     Victoria… Transf…       0
#>  5  2019 VIC            234 Wills             0              3       33251 KILLIN  Peter John        LP      Liberal … Prefer…   17241
#>  6  2019 VIC            234 Wills             0              3       33251 KILLIN  Peter John        LP      Liberal … Transf…       0
#>  7  2019 VIC            234 Wills             0              4       32657 PULFORD Adam Ross         GVIC    The Aust… Prefer…   25575
#>  8  2019 VIC            234 Wills             0              4       32657 PULFORD Adam Ross         GVIC    The Aust… Transf…       0
#>  9  2019 VIC            234 Wills             0              5       32329 VENKAT  Manju             UAPP    United A… Prefer…    2979
#> 10  2019 VIC            234 Wills             0              5       32329 VENKAT  Manju             UAPP    United A… Transf…       0
#> # … with 50 more rows, and abbreviated variable names ¹​CalculationType, ²​CalculationValue
```
…
## Turnout

The function *get_house_turnout()* retrieves turnout data as published by the AEC. It can be filtered by division and year


```r
get_house_turnout(year=2019)
#> # A tibble: 151 × 8
#>     Year DivisionID DivisionNm StateAb Enrolment Turnout TurnoutPercentage TurnoutSwing
#>    <dbl>      <int> <chr>      <chr>       <int>   <int>             <dbl>        <dbl>
#>  1  2019        179 Adelaide   SA         121606  111299              91.5         1.73
#>  2  2019        197 Aston      VIC        110342  103919              94.2        -0.69
#>  3  2019        198 Ballarat   VIC        114954  107372              93.4         1.03
#>  4  2019        103 Banks      NSW        106253   98845              93.0         1.04
#>  5  2019        180 Barker     SA         118371  111893              94.5         0.5 
#>  6  2019        104 Barton     NSW        108992   99380              91.2         1.34
#>  7  2019        192 Bass       TAS         76532   71973              94.0         0.19
#>  8  2019        318 Bean       ACT        104482   97982              93.8         0.09
#>  9  2019        200 Bendigo    VIC        112755  105979              94.0         0.51
#> 10  2019        105 Bennelong  NSW        108815  101542              93.3         1.61
#> # … with 141 more rows
```
