…
To figure out the election results included in the package, just run:


```r
list_years()
#> [1] 2022 2019 2016 2013 2010 2007 2004
```

To retrieve the list of division for all the years, you can run *list_divisions*:


```r
list_divisions()
#> # A tibble: 167 × 10
#>    StateAb DivisionID DivisionNm `2022` `2019` `2016` `2013` `2010` `2007` `2004`
#>    <chr>        <int> <chr>      <lgl>  <lgl>  <lgl>  <lgl>  <lgl>  <lgl>  <lgl> 
#>  1 ACT            101 Canberra   TRUE   TRUE   TRUE   TRUE   TRUE   TRUE   TRUE  
#>  2 ACT            102 Fenner     TRUE   TRUE   TRUE   NA     NA     NA     NA    
#>  3 ACT            102 Fraser     NA     NA     NA     TRUE   TRUE   TRUE   TRUE  
#>  4 ACT            318 Bean       TRUE   TRUE   NA     NA     NA     NA     NA    
#>  5 NSW            103 Banks      TRUE   TRUE   TRUE   TRUE   TRUE   TRUE   TRUE  
#>  6 NSW            104 Barton     TRUE   TRUE   TRUE   TRUE   TRUE   TRUE   TRUE  
#>  7 NSW            105 Bennelong  TRUE   TRUE   TRUE   TRUE   TRUE   TRUE   TRUE  
#>  8 NSW            106 Berowra    TRUE   TRUE   TRUE   TRUE   TRUE   TRUE   TRUE  
#>  9 NSW            107 Blaxland   TRUE   TRUE   TRUE   TRUE   TRUE   TRUE   TRUE  
#> 10 NSW            108 Bradfield  TRUE   TRUE   TRUE   TRUE   TRUE   TRUE   TRUE  
#> # … with 157 more rows
```
…
## Political Parties

It is recommend to explore the list of parties that have participated in the elections in the data. For this **


```r

list_parties()
#> # A tibble: 387 × 10
#>    StateAb PartyAb PartyNm                                  `2016` `2019` `2004` `2010` `2013` `2022` `2007`
#>    <chr>   <chr>   <chr>                                    <lgl>  <lgl>  <lgl>  <lgl>  <lgl>  <lgl>  <lgl> 
#>  1 NSW     AAPP    Antipaedophile Party                     TRUE   NA     NA     NA     NA     NA     NA    
#>  2 NSW     ABFA    Australian Better Families               NA     TRUE   NA     NA     NA     NA     NA    
#>  3 VIC     ADP     The Aged and Disability Pensioners Party NA     NA     TRUE   NA     NA     NA     NA    
#>  4 NSW     ADVP    Veterans Party                           TRUE   NA     NA     NA     NA     NA     NA    
#>  5 QLD     ADVP    Veterans Party                           TRUE   NA     NA     NA     NA     NA     NA    
#>  6 VIC     AEQ     Marriage Equality                        TRUE   NA     NA     NA     NA     NA     NA    
#>  7 NSW     AFN     Australia First Party                    TRUE   TRUE   NA     TRUE   TRUE   NA     NA    
#>  8 NT      AFN     Australia First Party                    TRUE   NA     NA     NA     NA     NA     NA    
#>  9 QLD     AFN     Australia First Party                    NA     TRUE   NA     NA     NA     NA     NA    
#> 10 SA      AFN     Australia First Party                    NA     NA     NA     NA     TRUE   NA     NA    
#> # … with 377 more rows
```
…
## Polling places

Finally, it is possible to list all polling places, showing their active years. For exmple, for all the electorates in Bennelong


```r
list_polling_places(filters=list(DivisionNm="Bennelong"))
#> # A tibble: 126 × 16
#>    State DivisionID DivisionNm PollingPlaceID Polli…¹ Premi…² Polli…³ Latit…⁴ Longi…⁵ `2004` `2007` `2010` `2013` `2016` `2019` `2022`
#>    <chr>      <int> <chr>               <int>   <int> <chr>   <chr>     <dbl>   <dbl> <lgl>  <lgl>  <lgl>  <lgl>  <lgl>  <lgl>  <lgl> 
#>  1 NSW          105 Bennelong              75       1 Epping… Balacl…   -33.8    151. TRUE   TRUE   TRUE   TRUE   TRUE   TRUE   TRUE  
#>  2 NSW          105 Bennelong              75       1 Epping… Marsfi…   -33.8    151. TRUE   TRUE   TRUE   TRUE   TRUE   TRUE   TRUE  
#>  3 NSW          105 Bennelong              79       1 Austra… Eastvi…   -33.8    151. TRUE   TRUE   TRUE   TRUE   TRUE   TRUE   NA    
#>  4 NSW          105 Bennelong              79       1 Austra… Ryde      -33.8    151. TRUE   TRUE   TRUE   TRUE   TRUE   TRUE   NA    
#>  5 NSW          105 Bennelong              79       1 The Li… Ryde      -33.8    151. NA     NA     NA     NA     NA     NA     TRUE  
#>  6 NSW          105 Bennelong              80       1 Eastwo… Eastwo…   -33.8    151. TRUE   TRUE   TRUE   TRUE   TRUE   TRUE   TRUE  
#>  7 NSW          105 Bennelong              81       1 Epping… Epping…   -33.8    151. TRUE   TRUE   TRUE   NA     NA     NA     NA    
#>  8 NSW          105 Bennelong              81       1 Epping… Epping…   -33.8    151. NA     NA     NA     TRUE   TRUE   TRUE   TRUE  
#>  9 NSW          105 Bennelong              82       1 Epping… Epping…   -33.8    151. TRUE   TRUE   TRUE   TRUE   TRUE   TRUE   TRUE  
#> 10 NSW          105 Bennelong              84       1 Glades… Glades…   -33.8    151. TRUE   TRUE   TRUE   TRUE   TRUE   TRUE   TRUE  
#> # … with 116 more rows, and abbreviated variable names ¹​PollingPlaceTypeID, ²​PremisesNm, ³​PollingPlaceNm, ⁴​Latitude, ⁵​Longitude
```
