House of Representatives - Get the data • auspol
…
get_house_2PP()

Please note that the presented here is shown as downloaded from the
AEC’s website.

Get primary vote and preferences

It is possible to get all primary vote results for all electorates in
all electon from 2044, by running get_house_primary_vote().
More usefully, the funcion allows to filter by a number of electorates
for a numbers of years, as shown in the below example:

get_house_primary_vote(division = c("Cowan","Curtin"),year=c(2019,2022))
#> # A tibble: 1,735 × 17
#>     Year StateAb Divisi…¹ Divis…² Polli…³ Polli…⁴ Candi…⁵ Surname GivenNm Ballo…⁶ Elected Histo…⁷ PartyAb PartyNm Ordin…⁸ Swing
#>    <dbl> <chr>      <int> <chr>     <int> <chr>     <int> <chr>   <chr>     <int> <lgl>   <lgl>   <chr>   <chr>     <int> <dbl>
#>  1  2022 WA           237 Cowan     11591 Alexan…   37205 ALY     Anne          1 TRUE    TRUE    ALP     Austra…     688  9.18
#>  2  2022 WA           237 Cowan     11591 Alexan…   36591 TRIPP   Isabel…       2 FALSE   FALSE   GRN     The Gr…     124 -1.47
#>  3  2022 WA           237 Cowan     11591 Alexan…   36484 IRADUK… Sylvia        3 FALSE   FALSE   AUC     Austra…      28  0.05
#>  4  2022 WA           237 Cowan     11591 Alexan…   37243 CALAUT… Michael       4 FALSE   FALSE   CYA     Austra…      27  1.96
#>  5  2022 WA           237 Cowan     11591 Alexan…   37387 WALSH   Tyler         5 FALSE   FALSE   ON      Paulin…      38 -3.35
#>  6  2022 WA           237 Cowan     11591 Alexan…   37222 van KR… Micah         6 FALSE   FALSE   LDP     Libera…      11  0.8 
#>  7  2022 WA           237 Cowan     11591 Alexan…   37841 LAVERA… Roland        7 FALSE   FALSE   WAP     WESTER…      26  1.89
#>  8  2022 WA           237 Cowan     11591 Alexan…   36483 HAND    Claire…       8 FALSE   FALSE   UAPP    United…      34 -0.24
#>  9  2022 WA           237 Cowan     11591 Alexan…   36574 CONNEL… Vince         9 FALSE   TRUE    LP      Liberal     369 -9.96
#> 10  2022 WA           237 Cowan     11591 Alexan…   37219 ANAGNO  Michael      10 FALSE   FALSE   AJP     Animal…      33  2.39
#> # … with 1,725 more rows, 1 more variable: SittingMemberFl <lgl>, and abbreviated variable names ¹​DivisionID, ²​DivisionNm,
#> #   ³​PollingPlaceID, ⁴​PollingPlace, ⁵​CandidateID, ⁶​BallotPosition, ⁷​HistoricElected, ⁸​OrdinaryVotes
…
The function also can present the division totals, for example:

get_house_primary_vote(division = c("Cowan","Curtin"),year=c(2019,2022), aggregation = TRUE)
#> # A tibble: 37 × 14
#>     Year StateAb DivisionID DivisionNm CandidateID Surname  GivenNm    Ballot…¹ Elected Histo…² PartyAb PartyNm Sitti…³ Ordin…⁴
#>    <dbl> <chr>        <int> <chr>            <int> <chr>    <chr>         <int> <lgl>   <lgl>   <chr>   <chr>   <lgl>     <int>
#>  1  2019 WA             237 Cowan              999 Informal Informal        999 FALSE   FALSE   Inform… Inform… FALSE      4090
#>  2  2019 WA             237 Cowan            32239 COOPER   Mark              1 FALSE   FALSE   GRN     The Gr… FALSE      6493
#>  3  2019 WA             237 Cowan            32778 LEBRASSE Andre             4 FALSE   FALSE   AUC     Austra… FALSE      1514
#>  4  2019 WA             237 Cowan            32875 BEDFORD  Paul James        6 FALSE   FALSE   ASP     Shoote… FALSE      1101
#>  5  2019 WA             237 Cowan            32934 WESTCOTT Peter             3 FALSE   FALSE   UAPP    United… FALSE      1582
#>  6  2019 WA             237 Cowan            33348 ALY      Anne              2 TRUE    TRUE    ALP     Austra… FALSE     26330
#>  7  2019 WA             237 Cowan            33389 STEWART  Isaac             7 FALSE   FALSE   LP      Liberal FALSE     26721
#>  8  2019 WA             237 Cowan            33450 MUNDY    Sheila            5 FALSE   FALSE   ON      Paulin… FALSE      3641
#>  9  2019 WA             238 Curtin             999 Informal Informal        999 FALSE   FALSE   Inform… Inform… FALSE      2364
#> 10  2019 WA             238 Curtin           32149 PIDGEON  Cameron           2 FALSE   FALSE   GRN     The Gr… FALSE     10905
#> # … with 27 more rows, and abbreviated variable names ¹​BallotPosition, ²​HistoricElected, ³​SittingMemberFl, ⁴​OrdinaryVotes
…
Similarly to the primary vote function, results can be aggregated and
filtered by polling place:

get_house_preferences("Wills",2019,aggregation = TRUE)
#> # A tibble: 60 × 13
#>     Year StateAb DivisionId DivisionNm CountNum BallotPosition CandidateId Surname GivenNm      PartyAb PartyNm Calcu…¹ Calcu…²
#>    <dbl> <chr>        <int> <chr>         <int>          <int>       <int> <chr>   <chr>        <chr>   <chr>   <chr>     <dbl>
#>  1  2019 VIC            234 Wills             0              1       32688 MILES   Christopher… AJP     Animal… Prefer…    3596
#>  2  2019 VIC            234 Wills             0              1       32688 MILES   Christopher… AJP     Animal… Transf…       0
#>  3  2019 VIC            234 Wills             0              2       32398 BOLTON  Susanne Ali… VNS     Victor… Prefer…    4344
#>  4  2019 VIC            234 Wills             0              2       32398 BOLTON  Susanne Ali… VNS     Victor… Transf…       0
#>  5  2019 VIC            234 Wills             0              3       33251 KILLIN  Peter John   LP      Libera… Prefer…   17241
#>  6  2019 VIC            234 Wills             0              3       33251 KILLIN  Peter John   LP      Libera… Transf…       0
#>  7  2019 VIC            234 Wills             0              4       32657 PULFORD Adam Ross    GVIC    The Au… Prefer…   25575
#>  8  2019 VIC            234 Wills             0              4       32657 PULFORD Adam Ross    GVIC    The Au… Transf…       0
#>  9  2019 VIC            234 Wills             0              5       32329 VENKAT  Manju        UAPP    United… Prefer…    2979
#> 10  2019 VIC            234 Wills             0              5       32329 VENKAT  Manju        UAPP    United… Transf…       0
#> # … with 50 more rows, and abbreviated variable names ¹​CalculationType, ²​CalculationValue
…
