Elected MPs • auspol
…
get_house_MPs(division="Bennelong")
#> # A tibble: 7 × 9
#>    Year DivisionID DivisionNm StateAb CandidateID GivenNm      Surname   PartyNm                PartyAb
#>   <dbl>      <int> <chr>      <chr>         <int> <chr>        <chr>     <chr>                  <chr>  
#> 1  2022        105 Bennelong  NSW           36827 Jerome       LAXALE    Australian Labor Party ALP    
#> 2  2019        105 Bennelong  NSW           33140 John         ALEXANDER Liberal                LP     
#> 3  2016        105 Bennelong  NSW           28568 John         ALEXANDER Liberal                LP     
#> 4  2013        105 Bennelong  NSW           23197 John         ALEXANDER Liberal                LP     
#> 5  2010        105 Bennelong  NSW           21648 John         ALEXANDER Liberal                LP     
#> 6  2007        105 Bennelong  NSW           18018 Maxine       McKEW     Australian Labor Party ALP    
#> 7  2004        105 Bennelong  NSW           14818 John Winston HOWARD    Liberal                LP

get_house_MPs(year=2013)
#> # A tibble: 150 × 9
#>     Year DivisionID DivisionNm StateAb CandidateID GivenNm   Surname   PartyNm                PartyAb
#>    <dbl>      <int> <chr>      <chr>         <int> <chr>     <chr>     <chr>                  <chr>  
#>  1  2013        179 Adelaide   SA            23971 Kate      ELLIS     Australian Labor Party ALP    
#>  2  2013        197 Aston      VIC           23474 Alan      TUDGE     Liberal                LP     
#>  3  2013        198 Ballarat   VIC           23305 Catherine KING      Australian Labor Party ALP    
#>  4  2013        103 Banks      NSW           23182 David     COLEMAN   Liberal                LP     
#>  5  2013        180 Barker     SA            23648 Tony      PASIN     Liberal                LP     
#>  6  2013        104 Barton     NSW           23183 Nickolas  VARVARIS  Liberal                LP     
#>  7  2013        192 Bass       TAS           23294 Andrew    NIKOLIC   Liberal                LP     
#>  8  2013        199 Batman     VIC           23296 David     FEENEY    Australian Labor Party ALP    
#>  9  2013        200 Bendigo    VIC           23318 Lisa      CHESTERS  Australian Labor Party ALP    
#> 10  2013        105 Bennelong  NSW           23197 John      ALEXANDER Liberal                LP     
#> # … with 140 more rows
…
