House of Representatives - Preferences • auspol
…
What is this?

If you are unfamiliar with the Australian electoral system and
preferential voting, please look at this explainer
before proceeding.

Getting the data

get_house_preferences() - provides an interface to access preference
flows for a particular division (electorate) on a given year, as
published in the AEC’s website . For instance:

get_house_preferences("Wills",2019)
#> # A tibble: 6,120 × 16
#>     Year StateAb DivisionId DivisionNm  PPId PPNm   CountNum BallotP…¹ Candi…² Surname GivenNm PartyAb PartyNm Sitti…³ Calcu…⁴ Calcu…⁵
#>    <dbl> <chr>        <int> <chr>      <int> <chr>     <int>     <int>   <int> <chr>   <chr>   <chr>   <chr>   <chr>   <chr>     <dbl>
#>  1  2019 VIC            234 Wills          0 ABSENT        0         1   32688 MILES   Christ… AJP     Animal… N       Prefer…  254   
#>  2  2019 VIC            234 Wills          0 ABSENT        0         1   32688 MILES   Christ… AJP     Animal… N       Prefer…    4.65
#>  3  2019 VIC            234 Wills          0 ABSENT        0         1   32688 MILES   Christ… AJP     Animal… N       Transf…    0   
#>  4  2019 VIC            234 Wills          0 ABSENT        0         1   32688 MILES   Christ… AJP     Animal… N       Transf…    0   
#>  5  2019 VIC            234 Wills          0 ABSENT        0         2   32398 BOLTON  Susann… VNS     Victor… N       Prefer…  238   
#>  6  2019 VIC            234 Wills          0 ABSENT        0         2   32398 BOLTON  Susann… VNS     Victor… N       Prefer…    4.35
#>  7  2019 VIC            234 Wills          0 ABSENT        0         2   32398 BOLTON  Susann… VNS     Victor… N       Transf…    0   
#>  8  2019 VIC            234 Wills          0 ABSENT        0         2   32398 BOLTON  Susann… VNS     Victor… N       Transf…    0   
#>  9  2019 VIC            234 Wills          0 ABSENT        0         3   33251 KILLIN  Peter … LP      Libera… N       Prefer…  862   
#> 10  2019 VIC            234 Wills          0 ABSENT        0         3   33251 KILLIN  Peter … LP      Libera… N       Prefer…   15.8 
#> # … with 6,110 more rows, and abbreviated variable names ¹​BallotPosition, ²​CandidateId, ³​SittingMemberFl, ⁴​CalculationType,
#> #   ⁵​CalculationValue
…
