Preferences — get_house_preferences • auspol
…
#>  3  2019 VIC            234 Wills        0 ABSE…       0       1   32688 MILES  
#>  4  2019 VIC            234 Wills        0 ABSE…       0       1   32688 MILES  
#>  5  2019 VIC            234 Wills        0 ABSE…       0       2   32398 BOLTON 
#>  6  2019 VIC            234 Wills        0 ABSE…       0       2   32398 BOLTON 
#>  7  2019 VIC            234 Wills        0 ABSE…       0       2   32398 BOLTON 
#>  8  2019 VIC            234 Wills        0 ABSE…       0       2   32398 BOLTON 
#>  9  2019 VIC            234 Wills        0 ABSE…       0       3   33251 KILLIN 
#> 10  2019 VIC            234 Wills        0 ABSE…       0       3   33251 KILLIN 
#> # … with 6 more variables: GivenNm <chr>, PartyAb <chr>, PartyNm <chr>,
#> #   SittingMemberFl <chr>, CalculationType <chr>, CalculationValue <dbl>, and
#> #   abbreviated variable names ¹​DivisionNm, ²​CountNum, ³​BallotPosition,
#> #   ⁴​CandidateId
# aggregated version
get_house_preferences("Wills",2019,aggregation = TRUE)
#> # A tibble: 60 × 13
#>     Year StateAb Divis…¹ Divis…² Count…³ Ballo…⁴ Candi…⁵ Surname GivenNm PartyAb
#>    <dbl> <chr>     <int> <chr>     <int>   <int>   <int> <chr>   <chr>   <chr>  
#>  1  2019 VIC         234 Wills         0       1   32688 MILES   Christ… AJP    
#>  2  2019 VIC         234 Wills         0       1   32688 MILES   Christ… AJP    
#>  3  2019 VIC         234 Wills         0       2   32398 BOLTON  Susann… VNS    
#>  4  2019 VIC         234 Wills         0       2   32398 BOLTON  Susann… VNS    
#>  5  2019 VIC         234 Wills         0       3   33251 KILLIN  Peter … LP     
#>  6  2019 VIC         234 Wills         0       3   33251 KILLIN  Peter … LP     
#>  7  2019 VIC         234 Wills         0       4   32657 PULFORD Adam R… GVIC   
#>  8  2019 VIC         234 Wills         0       4   32657 PULFORD Adam R… GVIC   
#>  9  2019 VIC         234 Wills         0       5   32329 VENKAT  Manju   UAPP   
#> 10  2019 VIC         234 Wills         0       5   32329 VENKAT  Manju   UAPP   
#> # … with 50 more rows, 3 more variables: PartyNm <chr>, CalculationType <chr>,
#> #   CalculationValue <dbl>, and abbreviated variable names ¹​DivisionId,
#> #   ²​DivisionNm, ³​CountNum, ⁴​BallotPosition, ⁵​CandidateId
…
